%YAML 1.1
%TAG !u! tag:unity3d.com,2011:
--- !u!687078895 &4343727234628468602
SpriteAtlas:
  m_ObjectHideFlags: 0
  m_CorrespondingSourceObject: {fileID: 0}
  m_PrefabInstance: {fileID: 0}
  m_PrefabAsset: {fileID: 0}
  m_Name: UISpriteAtlas
  m_EditorData:
    serializedVersion: 2
    textureSettings:
      serializedVersion: 2
      anisoLevel: 1
      compressionQuality: 50
      maxTextureSize: 2048
      textureCompression: 0
      filterMode: 1
      generateMipMaps: 0
      readable: 0
      crunchedCompression: 0
      sRGB: 1
    platformSettings:
    - serializedVersion: 2
      m_BuildTarget: Standalone
      m_MaxTextureSize: 2048
      m_ResizeAlgorithm: 0
      m_TextureFormat: 12
      m_TextureCompression: 1
      m_CompressionQuality: 50
      m_CrunchedCompression: 0
      m_AllowsAlphaSplitting: 0
      m_Overridden: 1
      m_AndroidETC2FallbackOverride: 0
    - serializedVersion: 2
      m_BuildTarget: iPhone
      m_MaxTextureSize: 2048
      m_ResizeAlgorithm: 0
      m_TextureFormat: 33
      m_TextureCompression: 1
      m_CompressionQuality: 50
      m_CrunchedCompression: 0
      m_AllowsAlphaSplitting: 0
      m_Overridden: 1
      m_AndroidETC2FallbackOverride: 0
    - serializedVersion: 2
      m_BuildTarget: Android
      m_MaxTextureSize: 2048
      m_ResizeAlgorithm: 0
      m_TextureFormat: 47
      m_TextureCompression: 1
      m_CompressionQuality: 50
      m_CrunchedCompression: 0
      m_AllowsAlphaSplitting: 0
      m_Overridden: 1
      m_AndroidETC2FallbackOverride: 0
    packingSettings:
      serializedVersion: 2
      padding: 4
      blockOffset: 1
      allowAlphaSplitting: 0
      enableRotation: 1
      enableTightPacking: 0
    variantMultiplier: 1
    packables:
    - {fileID: 2800000, guid: 9a96ccbf3b79eb340a7f781d893d618f, type: 3}
    - {fileID: 2800000, guid: 22c3b6280cff55549b68cc932284644a, type: 3}
    - {fileID: 2800000, guid: 399daff8721b94345afc3cdfeb1395a3, type: 3}
    - {fileID: 2800000, guid: 27a4a26eba0f6134abd6e665d11fd61d, type: 3}
    - {fileID: 2800000, guid: d874d831aba367b439bd87d7f70446bc, type: 3}
    - {fileID: 2800000, guid: 765ab329840851248afcfd83577c5402, type: 3}
    - {fileID: 2800000, guid: d8917dd8555138b42925cde985df5d1b, type: 3}
    - {fileID: 2800000, guid: b66e878fa5d6b5a43bc5cd9c58e48754, type: 3}
    - {fileID: 2800000, guid: 3ac45cdc308736641af28f3c6ab4e4c5, type: 3}
    - {fileID: 2800000, guid: 14e0cf686ca878c4d8a399d88e0b2f50, type: 3}
    - {fileID: 2800000, guid: 75a29b4662958a94ab6fa88ce8b5432c, type: 3}
    - {fileID: 2800000, guid: 8c09108fde93a2e4794f1e53a6b75729, type: 3}
    totalSpriteSurfaceArea: 0
    bindAsDefault: 1
  m_MasterAtlas: {fileID: 0}
  m_PackedSprites: []
  m_PackedSpriteNamesToIndex: []
  m_Tag: UISpriteAtlas
  m_IsVariant: 0
